<mxfile host="Electron" modified="2023-08-15T12:25:27.199Z" agent="Mozilla/5.0 (X11; Linux x86_64) AppleWebKit/537.36 (KHTML, like Gecko) draw.io/21.3.7 Chrome/112.0.5615.204 Electron/24.5.0 Safari/537.36" etag="_6sL-vRl4Sd0xVjA63Yf" version="21.3.7" type="device">
  <diagram name="Page-1" id="RMtYOWNpPyizL6KwQprT">
    <mxGraphModel dx="1434" dy="844" grid="1" gridSize="10" guides="1" tooltips="1" connect="1" arrows="1" fold="1" page="1" pageScale="1" pageWidth="1169" pageHeight="827" math="0" shadow="0">
      <root>
        <mxCell id="0" />
        <mxCell id="1" parent="0" />
        <mxCell id="C1zaEiw_dORtWFO6WZDj-4" style="edgeStyle=orthogonalEdgeStyle;rounded=0;orthogonalLoop=1;jettySize=auto;html=1;exitX=1;exitY=0.5;exitDx=0;exitDy=0;exitPerimeter=0;entryX=0;entryY=0.5;entryDx=0;entryDy=0;" edge="1" parent="1" source="C1zaEiw_dORtWFO6WZDj-1" target="C1zaEiw_dORtWFO6WZDj-3">
          <mxGeometry relative="1" as="geometry" />
        </mxCell>
        <mxCell id="C1zaEiw_dORtWFO6WZDj-1" value="Signal generator (Sine)&lt;br&gt;JT-JDS2915" style="perimeter=ellipsePerimeter;verticalLabelPosition=bottom;shadow=0;dashed=0;align=center;html=1;verticalAlign=top;shape=mxgraph.electrical.instruments.signal_generator;" vertex="1" parent="1">
          <mxGeometry x="390" y="414" width="90" height="90" as="geometry" />
        </mxCell>
        <mxCell id="C1zaEiw_dORtWFO6WZDj-5" style="edgeStyle=orthogonalEdgeStyle;rounded=0;orthogonalLoop=1;jettySize=auto;html=1;exitX=0;exitY=0.5;exitDx=0;exitDy=0;entryX=0.5;entryY=0;entryDx=0;entryDy=0;entryPerimeter=0;" edge="1" parent="1" source="C1zaEiw_dORtWFO6WZDj-3" target="C1zaEiw_dORtWFO6WZDj-2">
          <mxGeometry relative="1" as="geometry" />
        </mxCell>
        <mxCell id="C1zaEiw_dORtWFO6WZDj-3" value="CX25800-11Z&lt;br&gt;CXADC" style="rounded=0;whiteSpace=wrap;html=1;" vertex="1" parent="1">
          <mxGeometry x="640" y="400" width="160" height="120" as="geometry" />
        </mxCell>
        <mxCell id="C1zaEiw_dORtWFO6WZDj-2" value="DSO&#xa;DS1054Z" style="perimeter=ellipsePerimeter;verticalLabelPosition=bottom;shadow=0;dashed=0;align=center;verticalAlign=top;shape=mxgraph.electrical.instruments.oscilloscope;labelBackgroundColor=none;labelBorderColor=none;" vertex="1" parent="1">
          <mxGeometry x="550" y="530" width="90" height="90" as="geometry" />
        </mxCell>
      </root>
    </mxGraphModel>
  </diagram>
</mxfile>
